====================================================================================
Jira Board : 
https://issuetrackingsystem.atlassian.net/jira/software/projects/EPA/boards/1

====================================================================================
Jira Tutorial:
https://www.guru99.com/jira-tutorial-a-complete-guide-for-beginners.html

====================================================================================
PlugIn:
https://issuetrackingsystem.atlassian.net/plugins/servlet/upm?source=side_nav_manage_addons

====================================================================================
Doc - Strategy for chosing a project
https://community.atlassian.com/t5/Jira-articles/Best-Practices-Strategies-for-Defining-your-JIRA-Projects/ba-p/603061?tempId=eyJvaWRjX2NvbnNlbnRfbGFuZ3VhZ2VfdmVyc2lvbiI6IjIuMCIsIm9pZGNfY29uc2VudF9ncmFudGVkX2F0IjoxNTgzNTc1NjYxNzU2fQ%3D%3D

====================================================================================
Best Practice:
https://www.atlassian.com/software/jira/guides/getting-started/best-practices

====================================================================================
Jira overview:
https://www.softwareadvice.com/project-management/atlassian-jira-profile/


====================================================================================
Bibliografie Prof:
https://en.wikipedia.org/wiki/Jira_(software)
https://en.wikipedia.org/wiki/Comparison_of_issue-tracking_systems

====================================================================================
Metodologia SCRUM:
https://en.wikipedia.org/wiki/Comparison_of_issue-tracking_systems